Statistical concepts with R | Pietro Lesci
…
This tells you that tidyverse is loading the ggplot2, tibble, tidyr, readr, purrr, and dplyr packages. These are considered to be the core of the tidyverse because they are used in almost every analysis.

Packages in the tidyverse change fairly frequently. To check for updates, and optionally install them, run tidyverse_update().

Tibbles

Throughout this book we work with  instead of R’s traditional data.frame. Tibbles are dataframes, but they tweak some older behaviours to make life a little easier. R is an old language, and some things that were useful 10 or 20 years ago now get in our way. It is difficult to change base R without breaking existing code, so most innovation occurs in packages. Here we will describe the tibble package, which [@r4ds]. We will use the term tibble and dataframe interchangeably.

Almost all of the functions that we will use in this book produce tibbles, as tibbles are one of the unifying features of the tidyverse. Most other R packages use regular dataframes, so to coerce a dataframe to a tibble we can use the dplyr function as_tibble():

as_tibble(iris)

## # A tibble: 150 x 5
##    Sepal.Length Sepal.Width Petal.Length Petal.Width Species
##           <dbl>       <dbl>        <dbl>       <dbl> <fct>  
##  1          5.1         3.5          1.4         0.2 setosa 
##  2          4.9         3            1.4         0.2 setosa 
##  3          4.7         3.2          1.3         0.2 setosa 
##  4          4.6         3.1          1.5         0.2 setosa 
##  5          5           3.6          1.4         0.2 setosa 
##  6          5.4         3.9          1.7         0.4 setosa 
##  7          4.6         3.4          1.4         0.3 setosa 
##  8          5           3.4          1.5         0.2 setosa 
##  9          4.4         2.9          1.4         0.2 setosa 
## 10          4.9         3.1          1.5         0.1 setosa 
## # … with 140 more rows
…
